<svg width="10" height="4" viewBox="0 0 10 4" fill="none" xmlns="http://www.w3.org/2000/svg">
<path opacity="0.8" d="M6.644 3.48C6.724 3.272 6.812 3.08 6.908 2.904C7.004 2.72 7.112 2.548 7.232 2.388H0.8V1.404H7.232C7.12 1.244 7.016 1.076 6.92 0.9C6.824 0.716 6.736 0.52 6.656 0.312H7.568C8.064 0.896 8.608 1.34 9.2 1.644V2.16C8.608 2.448 8.064 2.888 7.568 3.48H6.644Z" fill="#23262F"/>
</svg>
