<svg width="12" height="8" viewBox="0 0 12 8" fill="none" xmlns="http://www.w3.org/2000/svg">
<path fill-rule="evenodd" clip-rule="evenodd" d="M11.6095 1.05719C11.0888 0.536492 10.2446 0.536492 9.72386 1.05719L6 4.78105L2.27614 1.05719C1.75544 0.536491 0.911223 0.536491 0.390525 1.05719C-0.130175 1.57789 -0.130175 2.42211 0.390524 2.94281L5.05719 7.60948C5.57789 8.13017 6.42211 8.13017 6.94281 7.60948L11.6095 2.94281C12.1302 2.42211 12.1302 1.57789 11.6095 1.05719Z" fill="#777E91"/>
</svg>
