<svg width="36" height="36" viewBox="0 0 36 36" fill="none" xmlns="http://www.w3.org/2000/svg">
<rect width="36" height="36" rx="4" fill="#CFF3FF"/>
<path fill-rule="evenodd" clip-rule="evenodd" d="M10.5 10.6429V13.1243C10.5 14.1032 10.8553 15.049 11.5 15.7857V15.7857C11.5 15.7857 11 16.9286 11 18.0714C11 18.419 11 19.0307 11 19.7138C11 21.6468 12.567 23.2143 14.5 23.2143V23.2143L16.3252 24.8831C16.7073 25.2324 17.2927 25.2324 17.6748 24.8831L19.5 23.2143H20.5C22.1569 23.2143 23.5 21.8711 23.5 20.2143C23.5 19.0996 23.5 17.9877 23.5 17.5C23.5 16.3571 22.5 15.7857 22.5 15.7857L23.5 15.2143H25L24 13.5V12.2679C24 11.6084 23.6749 10.9914 23.1311 10.6184L21.5 9.5V10.8151C21.5 11.6667 20.8096 12.3571 19.9579 12.3571V12.3571C19.4657 12.3571 19.0983 12.8179 19.0768 13.3097C19.0495 13.9369 18.8336 14.6429 18 14.6429V14.6429C15.0935 14.6429 13.461 10.6429 10.5545 10.6429H10.5Z" stroke="#23262F" stroke-linejoin="round"/>
<path fill-rule="evenodd" clip-rule="evenodd" d="M14 23.5L16.5 28H15.5H17.5H16.5L14 23.5Z" stroke="#23262F" stroke-linejoin="round"/>
<path fill-rule="evenodd" clip-rule="evenodd" d="M18 25L20.5 28H19.5H21.5H20.5L18 25Z" stroke="#23262F" stroke-linejoin="round"/>
<path d="M11 18L11.7362 18.7362C13.025 20.025 15.0767 20.1386 16.5 19V19" stroke="#23262F" stroke-linecap="round"/>
</svg>
