<svg width="16" height="16" viewBox="0 0 16 16" fill="none" xmlns="http://www.w3.org/2000/svg">
<path d="M8.01581 1.62769C7.63521 1.62755 7.24654 1.86436 7.01634 2.33569L5.60041 5.25082L2.37294 5.70889C1.33501 5.85329 0.998743 6.87156 1.74828 7.60356L4.08034 9.87356L3.53901 13.0596C3.36074 14.0909 4.21614 14.7142 5.14234 14.2256C5.50021 14.0362 7.34028 13.0829 8.01581 12.7262L10.8893 14.2256C11.8165 14.7142 12.6746 14.0916 12.4926 13.0596L11.9304 9.87356L14.2625 7.60356C15.0156 6.87422 14.6967 5.85622 13.6587 5.70889L10.4104 5.25082L9.01528 2.33569C8.78541 1.86416 8.39641 1.62789 8.01581 1.62769Z" fill="#FFA34D"/>
</svg>
